src/testbench.vcd
$date
	Sun Apr  1 20:52:06 2018
$end
$version
	Icarus Verilog
$end
$timescale
	1s
$end
$scope module testbench $end
$var wire 1 ! PCSrc_D $end
$var wire 5 " writeReg_W [4:0] $end
$var wire 5 # writeReg_M [4:0] $end
$var wire 5 $ writeReg_E [4:0] $end
$var wire 32 % writeData_M [31:0] $end
$var wire 32 & v1 [31:0] $end
$var wire 32 ' v0 [31:0] $end
$var wire 1 ( sysstall $end
$var wire 1 ) syscall_control $end
$var wire 32 * strAddr [31:0] $end
$var wire 32 + str [31:0] $end
$var wire 1 , stat_control $end
$var wire 32 - sp [31:0] $end
$var wire 32 . signImm_E [31:0] $end
$var wire 32 / signImm_D [31:0] $end
$var wire 32 0 readData_W [31:0] $end
$var wire 32 1 readData_M [31:0] $end
$var wire 32 2 ra [31:0] $end
$var wire 1 3 print $end
$var wire 32 4 number_instructions [31:0] $end
$var wire 32 5 jumpAddr [31:0] $end
$var wire 1 6 jump $end
$var wire 1 7 jr_control $end
$var wire 32 8 jrMux_out [31:0] $end
$var wire 1 9 jal_control $end
$var wire 32 : instr_F [31:0] $end
$var wire 32 ; instr_D [31:0] $end
$var wire 32 < fp [31:0] $end
$var wire 32 = branch_mux_out [31:0] $end
$var wire 32 > a0 [31:0] $end
$var wire 32 ? WriteData_E [31:0] $end
$var wire 2 @ WB_W [1:0] $end
$var wire 2 A WB_M [1:0] $end
$var wire 2 B WB_E [1:0] $end
$var wire 2 C WB_D [1:0] $end
$var wire 1 D StallF $end
$var wire 1 E StallD $end
$var wire 32 F SrcBE [31:0] $end
$var wire 32 G SrcAE [31:0] $end
$var wire 5 H Rt_E [4:0] $end
$var wire 5 I Rs_E [4:0] $end
$var wire 32 J Result_W [31:0] $end
$var wire 5 K Rd_E [4:0] $end
$var wire 32 L RD2_E [31:0] $end
$var wire 32 M RD2_D [31:0] $end
$var wire 32 N RD1_E [31:0] $end
$var wire 32 O RD1_D [31:0] $end
$var wire 32 P PC_F [31:0] $end
$var wire 32 Q PC_D [31:0] $end
$var wire 32 R PCPlus4_F [31:0] $end
$var wire 32 S PCPlus4_D [31:0] $end
$var wire 32 T PCBranch_D [31:0] $end
$var wire 32 U Next_PC [31:0] $end
$var wire 2 V MEM_M [1:0] $end
$var wire 2 W MEM_E [1:0] $end
$var wire 2 X MEM_D [1:0] $end
$var wire 2 Y ForwardBE [1:0] $end
$var wire 1 Z ForwardBD $end
$var wire 2 [ ForwardAE [1:0] $end
$var wire 1 \ ForwardAD $end
$var wire 1 ] FlushE $end
$var wire 1 ^ EqualD $end
$var wire 7 _ EX_E [6:0] $end
$var wire 7 ` EX_D [6:0] $end
$var wire 3 a BranchOp [2:0] $end
$var wire 1 b BranchD $end
$var wire 32 c And_Input2 [31:0] $end
$var wire 32 d And_Input1 [31:0] $end
$var wire 32 e ALUOut_W [31:0] $end
$var wire 32 f ALUOut_M [31:0] $end
$var wire 32 g ALUOut_E [31:0] $end
$var reg 1 h clk $end
$scope module ALU_block $end
$var wire 5 i ALUop [4:0] $end
$var wire 32 j reg2 [31:0] $end
$var wire 32 k reg1 [31:0] $end
$var reg 32 l ALUresult [31:0] $end
$var reg 64 m HiLo [63:0] $end
$var reg 32 n hi [31:0] $end
$var reg 32 o lo [31:0] $end
$upscope $end
$scope module ExMem $end
$var wire 32 p ALUOut_E [31:0] $end
$var wire 1 q FlushE $end
$var wire 1 h clk $end
$var wire 5 r WriteReg_E [4:0] $end
$var wire 32 s WriteData_E [31:0] $end
$var wire 2 t WB_E [1:0] $end
$var wire 2 u MEM_E [1:0] $end
$var reg 32 v ALUOut_M [31:0] $end
$var reg 2 w MEM_M [1:0] $end
$var reg 2 x WB_M [1:0] $end
$var reg 32 y WriteData_M [31:0] $end
$var reg 5 z WriteReg_M [4:0] $end
$upscope $end
$scope module IdEx $end
$var wire 5 { Rd_D [4:0] $end
$var wire 5 | Rs_D [4:0] $end
$var wire 5 } Rt_D [4:0] $end
$var wire 1 h clk $end
$var wire 1 6 jump $end
$var wire 2 ~ WB_D [1:0] $end
$var wire 32 !" SignImm_D [31:0] $end
$var wire 32 "" RD2_D [31:0] $end
$var wire 32 #" RD1_D [31:0] $end
$var wire 2 $" MEM_D [1:0] $end
$var wire 1 ] FlushE $end
$var wire 7 %" EX_D [6:0] $end
$var reg 7 &" EX_E [6:0] $end
$var reg 2 '" MEM_E [1:0] $end
$var reg 32 (" RD1_E [31:0] $end
$var reg 32 )" RD2_E [31:0] $end
$var reg 5 *" Rd_E [4:0] $end
$var reg 5 +" Rs_E [4:0] $end
$var reg 5 ," Rt_E [4:0] $end
$var reg 32 -" SignImm_E [31:0] $end
$var reg 2 ." WB_E [1:0] $end
$upscope $end
$scope module IfId $end
$var wire 1 ! PCSrcD $end
$var wire 1 h clk $end
$var wire 1 E StallD $end
$var wire 32 /" PC_Plus4_F [31:0] $end
$var wire 32 0" PC_F [31:0] $end
$var wire 32 1" Instr_F [31:0] $end
$var reg 32 2" Instr_D [31:0] $end
$var reg 32 3" PC_D [31:0] $end
$var reg 32 4" PC_Plus4_D [31:0] $end
$upscope $end
$scope module JumpAddr_block $end
$var wire 32 5" PCplus4 [31:0] $end
$var wire 32 6" instr [31:0] $end
$var wire 32 7" jumpAddr [31:0] $end
$upscope $end
$scope module MemWb $end
$var wire 32 8" ALUOut_M [31:0] $end
$var wire 2 9" WB_M [1:0] $end
$var wire 5 :" WriteReg_M [4:0] $end
$var wire 1 h clk $end
$var wire 32 ;" ReadData_M [31:0] $end
$var reg 32 <" ALUOut_W [31:0] $end
$var reg 32 =" ReadData_W [31:0] $end
$var reg 2 >" WB_W [1:0] $end
$var reg 5 ?" WriteReg_W [4:0] $end
$upscope $end
$scope module MuxRD1 $end
$var wire 32 @" mux_in_1 [31:0] $end
$var wire 1 \ select $end
$var wire 32 A" mux_in_0 [31:0] $end
$var reg 32 B" mux_out [31:0] $end
$upscope $end
$scope module MuxRD2 $end
$var wire 32 C" mux_in_1 [31:0] $end
$var wire 1 Z select $end
$var wire 32 D" mux_in_0 [31:0] $end
$var reg 32 E" mux_out [31:0] $end
$upscope $end
$scope module PC_block $end
$var wire 1 h clk $end
$var wire 32 F" nextPC [31:0] $end
$var wire 1 D StallF $end
$var reg 32 G" currPC [31:0] $end
$upscope $end
$scope module PCadd4 $end
$var wire 32 H" currPC [31:0] $end
$var wire 32 I" PCplus4 [31:0] $end
$upscope $end
$scope module aluMux $end
$var wire 32 J" mux_in_1 [31:0] $end
$var wire 1 K" select $end
$var wire 32 L" mux_in_0 [31:0] $end
$var reg 32 M" mux_out [31:0] $end
$upscope $end
$scope module aluSrcAMux $end
$var wire 32 N" mux_in_0 [31:0] $end
$var wire 32 O" mux_in_2 [31:0] $end
$var wire 2 P" select [1:0] $end
$var wire 32 Q" mux_in_1 [31:0] $end
$var reg 32 R" mux_out [31:0] $end
$upscope $end
$scope module aluSrcBMux $end
$var wire 32 S" mux_in_0 [31:0] $end
$var wire 32 T" mux_in_2 [31:0] $end
$var wire 2 U" select [1:0] $end
$var wire 32 V" mux_in_1 [31:0] $end
$var reg 32 W" mux_out [31:0] $end
$upscope $end
$scope module branchAdder $end
$var wire 32 X" PC_Plus4 [31:0] $end
$var wire 32 Y" signExtendedImmediate [31:0] $end
$var reg 32 Z" out [31:0] $end
$upscope $end
$scope module branchAnd $end
$var wire 1 ^ zero $end
$var wire 1 b branch $end
$var reg 1 [" and_out $end
$upscope $end
$scope module branchControl $end
$var wire 32 \" input1 [31:0] $end
$var wire 32 ]" input2 [31:0] $end
$var wire 3 ^" BranchOp [2:0] $end
$var reg 1 ^ equalD $end
$upscope $end
$scope module branchMux $end
$var wire 32 _" mux_in_0 [31:0] $end
$var wire 32 `" mux_in_1 [31:0] $end
$var wire 1 ! select $end
$var reg 32 a" mux_out [31:0] $end
$upscope $end
$scope module control_block $end
$var wire 32 b" instr [31:0] $end
$var reg 5 c" ALUop [4:0] $end
$var reg 1 d" ALUsrc $end
$var reg 1 b Branch $end
$var reg 3 e" BranchOp [2:0] $end
$var reg 7 f" EX_D [6:0] $end
$var reg 1 6 Jump $end
$var reg 2 g" MEM_D [1:0] $end
$var reg 1 h" MemRead $end
$var reg 1 i" MemToReg $end
$var reg 1 j" MemWrite $end
$var reg 1 k" RegDst $end
$var reg 1 l" RegWrite $end
$var reg 2 m" WB_D [1:0] $end
$var reg 1 9 jal_control $end
$var reg 1 7 jr_control $end
$var reg 1 ) syscall_control $end
$upscope $end
$scope module dataMem $end
$var wire 32 n" address [31:0] $end
$var wire 1 h clk $end
$var wire 1 o" memRead $end
$var wire 1 p" memWrite $end
$var wire 32 q" writeData [31:0] $end
$var reg 32 r" readData [31:0] $end
$upscope $end
$scope module hazard $end
$var wire 1 s" MemReadE $end
$var wire 1 t" MemReadM $end
$var wire 1 u" MemtoRegE $end
$var wire 1 v" MemtoRegM $end
$var wire 1 ! PCSrc_D $end
$var wire 1 w" RegWriteE $end
$var wire 1 x" RegWriteM $end
$var wire 1 y" RegWriteW $end
$var wire 5 z" RsD [4:0] $end
$var wire 5 {" RsE [4:0] $end
$var wire 5 |" RtD [4:0] $end
$var wire 5 }" RtE [4:0] $end
$var wire 5 ~" WriteRegM [4:0] $end
$var wire 5 !# WriteRegW [4:0] $end
$var wire 1 "# jump $end
$var wire 1 ) sycall_control $end
$var wire 5 ## WriteRegE [4:0] $end
$var reg 1 ] FlushE $end
$var reg 1 \ ForwardAD $end
$var reg 2 $# ForwardAE [1:0] $end
$var reg 1 Z ForwardBD $end
$var reg 2 %# ForwardBE [1:0] $end
$var reg 1 E StallD $end
$var reg 1 D StallF $end
$var reg 1 &# branchstall $end
$var reg 1 '# lwstall $end
$var reg 1 ( sysstall $end
$upscope $end
$scope module instructionMemory $end
$var wire 32 (# currPC [31:0] $end
$var wire 32 )# str [31:0] $end
$var wire 32 *# strAddr [31:0] $end
$var reg 32 +# instr [31:0] $end
$var reg 32 ,# number_instructions [31:0] $end
$upscope $end
$scope module jrMux $end
$var wire 32 -# mux_in_0 [31:0] $end
$var wire 1 7 select $end
$var wire 32 .# mux_in_1 [31:0] $end
$var reg 32 /# mux_out [31:0] $end
$upscope $end
$scope module jumpMux $end
$var wire 32 0# mux_in_0 [31:0] $end
$var wire 32 1# mux_in_1 [31:0] $end
$var wire 1 6 select $end
$var reg 32 2# mux_out [31:0] $end
$upscope $end
$scope module memToRegMux $end
$var wire 32 3# mux_in_0 [31:0] $end
$var wire 32 4# mux_in_1 [31:0] $end
$var wire 1 5# select $end
$var reg 32 6# mux_out [31:0] $end
$upscope $end
$scope module printer $end
$var wire 32 7# str [31:0] $end
$var wire 1 3 print $end
$var wire 32 8# a0 [31:0] $end
$var reg 1 9# isPrinting $end
$var reg 32 :# strAddr [31:0] $end
$var reg 8 ;# thisLetter [7:0] $end
$var integer 32 <# i [31:0] $end
$upscope $end
$scope module reg_block $end
$var wire 1 =# RegWrite_D $end
$var wire 1 ># RegWrite_W $end
$var wire 32 ?# a0 [31:0] $end
$var wire 1 h clk $end
$var wire 32 @# fp [31:0] $end
$var wire 32 A# jal_address [31:0] $end
$var wire 1 9 jal_control $end
$var wire 32 B# ra [31:0] $end
$var wire 5 C# readReg1 [4:0] $end
$var wire 5 D# readReg2 [4:0] $end
$var wire 32 E# sp [31:0] $end
$var wire 32 F# v0 [31:0] $end
$var wire 32 G# v1 [31:0] $end
$var wire 32 H# writeData [31:0] $end
$var wire 5 I# writeReg [4:0] $end
$var reg 32 J# readData1 [31:0] $end
$var reg 32 K# readData2 [31:0] $end
$var integer 32 L# i [31:0] $end
$upscope $end
$scope module registerMux $end
$var wire 5 M# mux_in_0 [4:0] $end
$var wire 5 N# mux_in_1 [4:0] $end
$var wire 1 O# select $end
$var reg 5 P# mux_out [4:0] $end
$upscope $end
$scope module runStats $end
$var wire 1 h clk $end
$var wire 32 Q# number_instructions [31:0] $end
$var wire 1 , stat_control $end
$var reg 32 R# number_cycles [31:0] $end
$upscope $end
$scope module signExtend_block $end
$var wire 32 S# instr [31:0] $end
$var reg 32 T# out_value [31:0] $end
$upscope $end
$scope module testSyscall $end
$var wire 32 U# a0 [31:0] $end
$var wire 1 ) syscall_control $end
$var wire 1 ( sysstall $end
$var wire 32 V# v0 [31:0] $end
$var reg 1 3 print $end
$var reg 1 , stat_control $end
$upscope $end
$upscope $end
$enddefinitions $end
#0
$dumpvars
b0 V#
b0 U#
b111111111111111 T#
b111100000111010111111111111111 S#
b1 R#
b1 Q#
bx P#
0O#
bx N#
bx M#
b100000 L#
bx K#
bx J#
bx I#
bx H#
b0 G#
b0 F#
b0 E#
b11101 D#
b0 C#
b0 B#
b10000000000000000111000 A#
b0 @#
b0 ?#
x>#
1=#
bx <#
bx ;#
bx :#
09#
b0 8#
bx 7#
bx 6#
x5#
bx 4#
bx 3#
b10000000000000000110100 2#
b11101011111111111111100 1#
b10000000000000000110100 0#
b11101011111111111111100 /#
b0 .#
b11101011111111111111100 -#
b1 ,#
b111100000111010111111111111111 +#
bx *#
bx )#
b10000000000000000110000 (#
0'#
0&#
b0 %#
b0 $#
bx ##
z"#
bx !#
bx ~"
bx }"
b11101 |"
bx {"
b0 z"
xy"
xx"
0w"
xv"
0u"
xt"
0s"
bx r"
bx q"
xp"
xo"
bx n"
b10 m"
1l"
0k"
0j"
0i"
0h"
b0 g"
b100011 f"
b0 e"
1d"
b11 c"
b111100000111010111111111111111 b"
b10000000000000000110100 a"
b10000100000000000110000 `"
b10000000000000000110100 _"
b0 ^"
bx ]"
bx \"
0["
b10000100000000000110000 Z"
b111111111111111 Y"
b10000000000000000110100 X"
bx W"
bx V"
b0 U"
bx T"
bx S"
bx R"
bx Q"
b0 P"
bx O"
bx N"
bx M"
bx L"
0K"
bx J"
b10000000000000000110100 I"
b10000000000000000110000 H"
b10000000000000000110000 G"
b10000000000000000110100 F"
bx E"
bx D"
bx C"
bx B"
bx A"
bx @"
bx ?"
bx >"
bx ="
bx <"
bx ;"
bx :"
bx 9"
bx 8"
b11101011111111111111100 7"
b111100000111010111111111111111 6"
b10000000000000000110100 5"
b10000000000000000110100 4"
b10000000000000000110000 3"
b111100000111010111111111111111 2"
b111100000111010111111111111111 1"
b10000000000000000110000 0"
b10000000000000000110100 /"
b0 ."
bx -"
bx ,"
bx +"
bx *"
bx )"
bx ("
b0 '"
b0 &"
b100011 %"
b0 $"
bx #"
bx ""
b111111111111111 !"
b10 ~
b11101 }
b0 |
b1111 {
bx z
bx y
bx x
bx w
bx v
b0 u
b0 t
bx s
bx r
zq
bx p
b0 o
b0 n
bx m
bx l
bx k
bx j
b0 i
1h
bx g
bx f
bx e
bx d
bx c
0b
b0 a
b100011 `
b0 _
0^
0]
0\
b0 [
xZ
b0 Y
b0 X
b0 W
bx V
b10000000000000000110100 U
b10000100000000000110000 T
b10000000000000000110100 S
b10000000000000000110100 R
b10000000000000000110000 Q
b10000000000000000110000 P
bx O
bx N
bx M
bx L
bx K
bx J
bx I
bx H
bx G
bx F
0E
0D
b10 C
b0 B
bx A
bx @
bx ?
b0 >
b10000000000000000110100 =
b0 <
b111100000111010111111111111111 ;
b111100000111010111111111111111 :
09
b11101011111111111111100 8
07
06
b11101011111111111111100 5
b1 4
03
b0 2
bx 1
bx 0
b111111111111111 /
bx .
b0 -
0,
bx +
bx *
0)
0(
b0 '
b0 &
bx %
bx $
bx #
bx "
0!
$end
#10
b0 d
b0 B"
b0 \"
b0 M
b0 ""
b0 D"
b0 K#
b0 O
b0 #"
b0 A"
b0 J#
0h
#20
b0 c
b0 E"
b0 ]"
0Z
b1111111111111110000000000000000 g
b1111111111111110000000000000000 l
b1111111111111110000000000000000 p
b10000000000000000111000 U
b10000000000000000111000 F"
b10000000000000000111000 2#
0x"
0v"
0o"
0p"
0t"
b111111111111111 F
b111111111111111 j
b111111111111111 M"
b0 ?
b0 s
b0 L"
b0 W"
b0 G
b0 k
b0 R"
b11101 $
b11101 r
b11101 ##
b11101 P#
1w"
b11 i
1K"
b10000000000000000111000 =
b10000000000000000111000 a"
b10000000000000000111000 0#
b10 4
b10 ,#
b10 Q#
b1100000100000000000000010100 :
b1100000100000000000000010100 1"
b1100000100000000000000010100 +#
b0 A
b0 x
b0 9"
b0 V
b0 w
b111111111111111 .
b111111111111111 -"
b111111111111111 J"
b0 L
b0 )"
b0 S"
b0 N
b0 ("
b0 N"
b1111 K
b1111 *"
b1111 N#
b11101 H
b11101 ,"
b11101 }"
b11101 M#
b0 I
b0 +"
b0 {"
b10 B
b10 t
b10 ."
b100011 _
b100011 &"
b10000000000000000111000 R
b10000000000000000111000 /"
b10000000000000000111000 I"
b10000000000000000111000 _"
b10000000000000000110100 P
b10000000000000000110100 0"
b10000000000000000110100 G"
b10000000000000000110100 H"
b10000000000000000110100 (#
b10 R#
1h
#30
0h
#40
b10000000000000001010000 8
b10000000000000001010000 /#
b10000000000000001010000 1#
b10000000000000001010000 5
b10000000000000001010000 7"
b10000000000000001010000 -#
b10000000000000001010000 U
b10000000000000001010000 F"
b10000000000000001010000 2#
b1111111111111110000000000000000 ?
b1111111111111110000000000000000 s
b1111111111111110000000000000000 L"
b1111111111111110000000000000000 W"
b0 c
b0 E"
b0 ]"
b10000000000000000111100 =
b10000000000000000111100 a"
b10000000000000000111100 0#
b11 4
b11 ,#
b11 Q#
b110111101111011111111111111100 :
b110111101111011111111111111100 1"
b110111101111011111111111111100 +#
b10000000000000010001000 T
b10000000000000010001000 Z"
b10000000000000010001000 `"
b0 `
b0 %"
b0 f"
19
16
0d"
1l"
b0 c"
b10100 /
b10100 !"
b10100 Y"
b10100 T#
b0 {
b10000 }
b10000 D#
b10000 |"
b10 Y
b10 U"
b10 %#
0Z
1x"
05#
0>#
0y"
b10000000000000000111100 R
b10000000000000000111100 /"
b10000000000000000111100 I"
b10000000000000000111100 _"
b10000000000000000111000 P
b10000000000000000111000 0"
b10000000000000000111000 G"
b10000000000000000111000 H"
b10000000000000000111000 (#
b10000000000000000111000 S
b10000000000000000111000 4"
b10000000000000000111000 5"
b10000000000000000111000 X"
b1100000100000000000000010100 ;
b1100000100000000000000010100 2"
b1100000100000000000000010100 6"
b1100000100000000000000010100 b"
b1100000100000000000000010100 S#
b10000000000000000111100 A#
b10000000000000000110100 Q
b10000000000000000110100 3"
b11101 #
b11101 z
b11101 :"
b11101 ~"
b0 %
b0 y
b0 q"
b1111111111111110000000000000000 f
b1111111111111110000000000000000 v
b1111111111111110000000000000000 8"
b1111111111111110000000000000000 @"
b1111111111111110000000000000000 C"
b1111111111111110000000000000000 O"
b1111111111111110000000000000000 T"
b1111111111111110000000000000000 n"
b10 A
b10 x
b10 9"
b0 @
b0 >"
b11 R#
1h
#41
b10000000000000000111100 2
b10000000000000000111100 .#
b10000000000000000111100 B#
#50
0h
#60
b10111101111111111111110000 8
b10111101111111111111110000 /#
b10111101111111111111110000 1#
b0 ?
b0 s
b0 L"
b0 W"
b1111111111111110000000000000000 c
b1111111111111110000000000000000 E"
b1111111111111110000000000000000 ]"
b1111111111111110000000000000000 d
b1111111111111110000000000000000 B"
b1111111111111110000000000000000 \"
b0 g
b0 l
b0 p
b10111101111111111111110000 5
b10111101111111111111110000 7"
b10111101111111111111110000 -#
b10000000000000001010100 U
b10000000000000001010100 F"
b10000000000000001010100 2#
b1111111111111110000000000000000 J
b1111111111111110000000000000000 Q"
b1111111111111110000000000000000 V"
b1111111111111110000000000000000 6#
b1111111111111110000000000000000 H#
1>#
1y"
b0 F
b0 j
b0 M"
b0 Y
b0 U"
b0 %#
1Z
1\
b0 $
b0 r
b0 ##
b0 P#
0w"
b0 i
0K"
b10001000000000000101100 T
b10001000000000000101100 Z"
b10001000000000000101100 `"
b1111111111111100 /
b1111111111111100 !"
b1111111111111100 Y"
b1111111111111100 T#
b100001 `
b100001 %"
b100001 f"
1d"
b1 c"
09
1l"
06
b11111 {
b11101 }
b11101 |
b11101 D#
b11101 C#
b11101 |"
b11101 z"
b10000000000000001010100 =
b10000000000000001010100 a"
b10000000000000001010100 0#
b100 4
b100 ,#
b100 Q#
b100111101111011111111111101000 :
b100111101111011111111111101000 1"
b100111101111011111111111101000 +#
b11101 "
b11101 ?"
b11101 !#
b11101 I#
b1111111111111110000000000000000 e
b1111111111111110000000000000000 <"
b1111111111111110000000000000000 3#
b10 @
b10 >"
b1111111111111110000000000000000 %
b1111111111111110000000000000000 y
b1111111111111110000000000000000 q"
b0 .
b0 -"
b0 J"
b0 K
b0 *"
b0 N#
b0 H
b0 ,"
b0 }"
b0 M#
b0 B
b0 t
b0 ."
b0 _
b0 &"
b10000000000000000111100 S
b10000000000000000111100 4"
b10000000000000000111100 5"
b10000000000000000111100 X"
b110111101111011111111111111100 ;
b110111101111011111111111111100 2"
b110111101111011111111111111100 6"
b110111101111011111111111111100 b"
b110111101111011111111111111100 S#
b10000000000000001000000 A#
b10000000000000000111000 Q
b10000000000000000111000 3"
b10000000000000001010100 R
b10000000000000001010100 /"
b10000000000000001010100 I"
b10000000000000001010100 _"
b10000000000000001010000 P
b10000000000000001010000 0"
b10000000000000001010000 G"
b10000000000000001010000 H"
b10000000000000001010000 (#
b100 R#
1h
#61
b1111111111111110000000000000000 -
b1111111111111110000000000000000 E#
#70
b1111111111111110000000000000000 M
b1111111111111110000000000000000 ""
b1111111111111110000000000000000 D"
b1111111111111110000000000000000 K#
b1111111111111110000000000000000 O
b1111111111111110000000000000000 #"
b1111111111111110000000000000000 A"
b1111111111111110000000000000000 J#
0h
#80
b10111101111111111110100000 8
b10111101111111111110100000 /#
b10111101111111111110100000 1#
b10000000000000001011000 U
b10000000000000001011000 F"
b10000000000000001011000 2#
b10111101111111111110100000 5
b10111101111111111110100000 7"
b10111101111111111110100000 -#
b1111111111111111111111111111100 g
b1111111111111111111111111111100 l
b1111111111111111111111111111100 p
b10000000000000001011000 =
b10000000000000001011000 a"
b10000000000000001011000 0#
b101 4
b101 ,#
b101 Q#
b10101111101111110000000000010100 :
b10101111101111110000000000010100 1"
b10101111101111110000000000010100 +#
b1111111111111111110100 T
b1111111111111111110100 Z"
b1111111111111111110100 `"
b100010 `
b100010 %"
b100010 f"
1d"
1l"
b10 c"
b11111111111111111111111111101000 /
b11111111111111111111111111101000 !"
b11111111111111111111111111101000 Y"
b11111111111111111111111111101000 T#
b1111111111111100 F
b1111111111111100 j
b1111111111111100 M"
b11101 $
b11101 r
b11101 ##
b11101 P#
1w"
b1 i
1K"
b1 Y
b1 U"
b1 %#
b1 [
b1 P"
b1 $#
0Z
0\
b1111111111111110000000000000000 d
b1111111111111110000000000000000 B"
b1111111111111110000000000000000 \"
b1111111111111110000000000000000 c
b1111111111111110000000000000000 E"
b1111111111111110000000000000000 ]"
b1111111111111110000000000000000 G
b1111111111111110000000000000000 k
b1111111111111110000000000000000 R"
b1111111111111110000000000000000 ?
b1111111111111110000000000000000 s
b1111111111111110000000000000000 L"
b1111111111111110000000000000000 W"
0x"
b10000000000000001011000 R
b10000000000000001011000 /"
b10000000000000001011000 I"
b10000000000000001011000 _"
b10000000000000001010100 P
b10000000000000001010100 0"
b10000000000000001010100 G"
b10000000000000001010100 H"
b10000000000000001010100 (#
b10000000000000001010100 S
b10000000000000001010100 4"
b10000000000000001010100 5"
b10000000000000001010100 X"
b100111101111011111111111101000 ;
b100111101111011111111111101000 2"
b100111101111011111111111101000 6"
b100111101111011111111111101000 b"
b100111101111011111111111101000 S#
b10000000000000001011000 A#
b10000000000000001010000 Q
b10000000000000001010000 3"
b1111111111111100 .
b1111111111111100 -"
b1111111111111100 J"
b1111111111111110000000000000000 L
b1111111111111110000000000000000 )"
b1111111111111110000000000000000 S"
b1111111111111110000000000000000 N
b1111111111111110000000000000000 ("
b1111111111111110000000000000000 N"
b11111 K
b11111 *"
b11111 N#
b11101 H
b11101 ,"
b11101 }"
b11101 M#
b11101 I
b11101 +"
b11101 {"
b10 B
b10 t
b10 ."
b100001 _
b100001 &"
b0 #
b0 z
b0 :"
b0 ~"
b0 %
b0 y
b0 q"
b0 f
b0 v
b0 8"
b0 @"
b0 C"
b0 O"
b0 T"
b0 n"
b0 A
b0 x
b0 9"
b101 R#
1h
#90
0h
#100
b10111111000000000001010000 8
b10111111000000000001010000 /#
b10111111000000000001010000 1#
b1111111111111111111111111111100 ?
b1111111111111111111111111111100 s
b1111111111111111111111111111100 L"
b1111111111111111111111111111100 W"
b1111111111111111111111111111100 G
b1111111111111111111111111111100 k
b1111111111111111111111111111100 R"
b1111111111111111111111111111100 d
b1111111111111111111111111111100 B"
b1111111111111111111111111111100 \"
b1111111111111111111111111100100 g
b1111111111111111111111111100100 l
b1111111111111111111111111100100 p
b10111111000000000001010000 5
b10111111000000000001010000 7"
b10111111000000000001010000 -#
0=#
b10000000000000001011100 U
b10000000000000001011100 F"
b10000000000000001011100 2#
b0 J
b0 Q"
b0 V"
b0 6#
b0 H#
0>#
0y"
b10 Y
b10 U"
b10 %#
b10 [
b10 P"
b10 $#
1\
1x"
b11111111111111111111111111101000 F
b11111111111111111111111111101000 j
b11111111111111111111111111101000 M"
b10 i
b10000000000000010101000 T
b10000000000000010101000 Z"
b10000000000000010101000 `"
b10100 /
b10100 !"
b10100 Y"
b10100 T#
b0 C
b0 ~
b0 m"
b10 X
b10 $"
b10 g"
1j"
1d"
0l"
b10 c"
b0 {
b11111 }
b11111 D#
b11111 |"
b10000000000000001011100 =
b10000000000000001011100 a"
b10000000000000001011100 0#
b110 4
b110 ,#
b110 Q#
b10101111101111100000000000010000 :
b10101111101111100000000000010000 1"
b10101111101111100000000000010000 +#
b0 "
b0 ?"
b0 !#
b0 I#
b0 e
b0 <"
b0 3#
b0 @
b0 >"
b11101 #
b11101 z
b11101 :"
b11101 ~"
b1111111111111110000000000000000 %
b1111111111111110000000000000000 y
b1111111111111110000000000000000 q"
b1111111111111111111111111111100 f
b1111111111111111111111111111100 v
b1111111111111111111111111111100 8"
b1111111111111111111111111111100 @"
b1111111111111111111111111111100 C"
b1111111111111111111111111111100 O"
b1111111111111111111111111111100 T"
b1111111111111111111111111111100 n"
b10 A
b10 x
b10 9"
b11111111111111111111111111101000 .
b11111111111111111111111111101000 -"
b11111111111111111111111111101000 J"
b100010 _
b100010 &"
b10000000000000001011000 S
b10000000000000001011000 4"
b10000000000000001011000 5"
b10000000000000001011000 X"
b10101111101111110000000000010100 ;
b10101111101111110000000000010100 2"
b10101111101111110000000000010100 6"
b10101111101111110000000000010100 b"
b10101111101111110000000000010100 S#
b10000000000000001011100 A#
b10000000000000001010100 Q
b10000000000000001010100 3"
b10000000000000001011100 R
b10000000000000001011100 /"
b10000000000000001011100 I"
b10000000000000001011100 _"
b10000000000000001011000 P
b10000000000000001011000 0"
b10000000000000001011000 G"
b10000000000000001011000 H"
b10000000000000001011000 (#
b110 R#
1h
#110
b10000000000000000111100 c
b10000000000000000111100 E"
b10000000000000000111100 ]"
b10000000000000000111100 M
b10000000000000000111100 ""
b10000000000000000111100 D"
b10000000000000000111100 K#
0h
#120
b10111110000000000001000000 8
b10111110000000000001000000 /#
b10111110000000000001000000 1#
b10000000000000001100000 U
b10000000000000001100000 F"
b10000000000000001100000 2#
b10111110000000000001000000 5
b10111110000000000001000000 7"
b10111110000000000001000000 -#
b1111111111111111111111111111000 g
b1111111111111111111111111111000 l
b1111111111111111111111111111000 p
b10000000000000001100000 =
b10000000000000001100000 a"
b10000000000000001100000 0#
b111 4
b111 ,#
b111 Q#
b11101000001111000000100001 :
b11101000001111000000100001 1"
b11101000001111000000100001 +#
b10000000000000010011100 T
b10000000000000010011100 Z"
b10000000000000010011100 `"
1j"
1d"
b10 c"
b10000 /
b10000 !"
b10000 Y"
b10000 T#
b11110 }
b11110 D#
b11110 |"
b10100 F
b10100 j
b10100 M"
b11111 $
b11111 r
b11111 ##
b11111 P#
0w"
b1111111111111111111111111100100 d
b1111111111111111111111111100100 B"
b1111111111111111111111111100100 \"
b1111111111111111111111111100100 G
b1111111111111111111111111100100 k
b1111111111111111111111111100100 R"
b10000000000000000111100 ?
b10000000000000000111100 s
b10000000000000000111100 L"
b10000000000000000111100 W"
b0 Y
b0 U"
b0 %#
b1111111111111111111111111111100 J
b1111111111111111111111111111100 Q"
b1111111111111111111111111111100 V"
b1111111111111111111111111111100 6#
b1111111111111111111111111111100 H#
1>#
1y"
b10000000000000001100000 R
b10000000000000001100000 /"
b10000000000000001100000 I"
b10000000000000001100000 _"
b10000000000000001011100 P
b10000000000000001011100 0"
b10000000000000001011100 G"
b10000000000000001011100 H"
b10000000000000001011100 (#
b10000000000000001011100 S
b10000000000000001011100 4"
b10000000000000001011100 5"
b10000000000000001011100 X"
b10101111101111100000000000010000 ;
b10101111101111100000000000010000 2"
b10101111101111100000000000010000 6"
b10101111101111100000000000010000 b"
b10101111101111100000000000010000 S#
b10000000000000001100000 A#
b10000000000000001011000 Q
b10000000000000001011000 3"
b10100 .
b10100 -"
b10100 J"
b10000000000000000111100 L
b10000000000000000111100 )"
b10000000000000000111100 S"
b0 K
b0 *"
b0 N#
b11111 H
b11111 ,"
b11111 }"
b11111 M#
b0 B
b0 t
b0 ."
b10 W
b10 u
b10 '"
b1111111111111111111111111111100 %
b1111111111111111111111111111100 y
b1111111111111111111111111111100 q"
b1111111111111111111111111100100 f
b1111111111111111111111111100100 v
b1111111111111111111111111100100 8"
b1111111111111111111111111100100 @"
b1111111111111111111111111100100 C"
b1111111111111111111111111100100 O"
b1111111111111111111111111100100 T"
b1111111111111111111111111100100 n"
b11101 "
b11101 ?"
b11101 !#
b11101 I#
b1111111111111111111111111111100 e
b1111111111111111111111111111100 <"
b1111111111111111111111111111100 3#
b10 @
b10 >"
b111 R#
1h
#121
b1111111111111111111111111111100 -
b1111111111111111111111111111100 E#
