src/testbench.vcd
$date
	Sun Apr  1 21:31:10 2018
$end
$version
	Icarus Verilog
$end
$timescale
	1s
$end
$scope module testbench $end
$var wire 1 ! PCSrc_D $end
$var wire 5 " writeReg_W [4:0] $end
$var wire 5 # writeReg_M [4:0] $end
$var wire 5 $ writeReg_E [4:0] $end
$var wire 32 % writeData_M [31:0] $end
$var wire 32 & v1 [31:0] $end
$var wire 32 ' v0 [31:0] $end
$var wire 1 ( sysstall $end
$var wire 1 ) syscall_control $end
$var wire 32 * strAddr [31:0] $end
$var wire 32 + str [31:0] $end
$var wire 1 , stat_control $end
$var wire 32 - sp [31:0] $end
$var wire 32 . signImm_E [31:0] $end
$var wire 32 / signImm_D [31:0] $end
$var wire 32 0 readData_W [31:0] $end
$var wire 32 1 readData_M [31:0] $end
$var wire 32 2 ra [31:0] $end
$var wire 1 3 print $end
$var wire 32 4 number_instructions [31:0] $end
$var wire 32 5 jumpAddr [31:0] $end
$var wire 1 6 jump $end
$var wire 1 7 jr_control $end
$var wire 32 8 jrMux_out [31:0] $end
$var wire 1 9 jal_control $end
$var wire 32 : instr_F [31:0] $end
$var wire 32 ; instr_D [31:0] $end
$var wire 32 < fp [31:0] $end
$var wire 32 = branch_mux_out [31:0] $end
$var wire 32 > a0 [31:0] $end
$var wire 32 ? WriteData_E [31:0] $end
$var wire 2 @ WB_W [1:0] $end
$var wire 2 A WB_M [1:0] $end
$var wire 2 B WB_E [1:0] $end
$var wire 2 C WB_D [1:0] $end
$var wire 1 D StallF $end
$var wire 1 E StallD $end
$var wire 32 F SrcBE [31:0] $end
$var wire 32 G SrcAE [31:0] $end
$var wire 5 H Shamt_E [4:0] $end
$var wire 5 I Rt_E [4:0] $end
$var wire 5 J Rs_E [4:0] $end
$var wire 32 K Result_W [31:0] $end
$var wire 5 L Rd_E [4:0] $end
$var wire 32 M RD2_E [31:0] $end
$var wire 32 N RD2_D [31:0] $end
$var wire 32 O RD1_E [31:0] $end
$var wire 32 P RD1_D [31:0] $end
$var wire 32 Q PC_F [31:0] $end
$var wire 32 R PC_D [31:0] $end
$var wire 32 S PCPlus4_F [31:0] $end
$var wire 32 T PCPlus4_D [31:0] $end
$var wire 32 U PCBranch_D [31:0] $end
$var wire 32 V Next_PC [31:0] $end
$var wire 2 W MEM_M [1:0] $end
$var wire 2 X MEM_E [1:0] $end
$var wire 2 Y MEM_D [1:0] $end
$var wire 2 Z ForwardBE [1:0] $end
$var wire 1 [ ForwardBD $end
$var wire 2 \ ForwardAE [1:0] $end
$var wire 1 ] ForwardAD $end
$var wire 1 ^ FlushE $end
$var wire 1 _ EqualD $end
$var wire 7 ` EX_E [6:0] $end
$var wire 7 a EX_D [6:0] $end
$var wire 3 b BranchOp [2:0] $end
$var wire 1 c BranchD $end
$var wire 32 d And_Input2 [31:0] $end
$var wire 32 e And_Input1 [31:0] $end
$var wire 32 f ALUOut_W [31:0] $end
$var wire 32 g ALUOut_M [31:0] $end
$var wire 32 h ALUOut_E [31:0] $end
$var reg 1 i clk $end
$scope module ALU_block $end
$var wire 5 j ALUop [4:0] $end
$var wire 5 k shamt [4:0] $end
$var wire 32 l reg2 [31:0] $end
$var wire 32 m reg1 [31:0] $end
$var reg 32 n ALUresult [31:0] $end
$var reg 64 o HiLo [63:0] $end
$var reg 32 p hi [31:0] $end
$var reg 32 q lo [31:0] $end
$upscope $end
$scope module ExMem $end
$var wire 32 r ALUOut_E [31:0] $end
$var wire 1 s FlushE $end
$var wire 1 i clk $end
$var wire 5 t WriteReg_E [4:0] $end
$var wire 32 u WriteData_E [31:0] $end
$var wire 2 v WB_E [1:0] $end
$var wire 2 w MEM_E [1:0] $end
$var reg 32 x ALUOut_M [31:0] $end
$var reg 2 y MEM_M [1:0] $end
$var reg 2 z WB_M [1:0] $end
$var reg 32 { WriteData_M [31:0] $end
$var reg 5 | WriteReg_M [4:0] $end
$upscope $end
$scope module IdEx $end
$var wire 5 } Rd_D [4:0] $end
$var wire 5 ~ Rs_D [4:0] $end
$var wire 5 !" Rt_D [4:0] $end
$var wire 5 "" Shamt_D [4:0] $end
$var wire 1 i clk $end
$var wire 1 6 jump $end
$var wire 2 #" WB_D [1:0] $end
$var wire 32 $" SignImm_D [31:0] $end
$var wire 32 %" RD2_D [31:0] $end
$var wire 32 &" RD1_D [31:0] $end
$var wire 2 '" MEM_D [1:0] $end
$var wire 1 ^ FlushE $end
$var wire 7 (" EX_D [6:0] $end
$var reg 7 )" EX_E [6:0] $end
$var reg 2 *" MEM_E [1:0] $end
$var reg 32 +" RD1_E [31:0] $end
$var reg 32 ," RD2_E [31:0] $end
$var reg 5 -" Rd_E [4:0] $end
$var reg 5 ." Rs_E [4:0] $end
$var reg 5 /" Rt_E [4:0] $end
$var reg 5 0" Shamt_E [4:0] $end
$var reg 32 1" SignImm_E [31:0] $end
$var reg 2 2" WB_E [1:0] $end
$upscope $end
$scope module IfId $end
$var wire 1 ! PCSrcD $end
$var wire 1 i clk $end
$var wire 1 E StallD $end
$var wire 32 3" PC_Plus4_F [31:0] $end
$var wire 32 4" PC_F [31:0] $end
$var wire 32 5" Instr_F [31:0] $end
$var reg 32 6" Instr_D [31:0] $end
$var reg 32 7" PC_D [31:0] $end
$var reg 32 8" PC_Plus4_D [31:0] $end
$upscope $end
$scope module JumpAddr_block $end
$var wire 32 9" PCplus4 [31:0] $end
$var wire 32 :" instr [31:0] $end
$var wire 32 ;" jumpAddr [31:0] $end
$upscope $end
$scope module MemWb $end
$var wire 32 <" ALUOut_M [31:0] $end
$var wire 2 =" WB_M [1:0] $end
$var wire 5 >" WriteReg_M [4:0] $end
$var wire 1 i clk $end
$var wire 32 ?" ReadData_M [31:0] $end
$var reg 32 @" ALUOut_W [31:0] $end
$var reg 32 A" ReadData_W [31:0] $end
$var reg 2 B" WB_W [1:0] $end
$var reg 5 C" WriteReg_W [4:0] $end
$upscope $end
$scope module MuxRD1 $end
$var wire 32 D" mux_in_1 [31:0] $end
$var wire 1 ] select $end
$var wire 32 E" mux_in_0 [31:0] $end
$var reg 32 F" mux_out [31:0] $end
$upscope $end
$scope module MuxRD2 $end
$var wire 32 G" mux_in_1 [31:0] $end
$var wire 1 [ select $end
$var wire 32 H" mux_in_0 [31:0] $end
$var reg 32 I" mux_out [31:0] $end
$upscope $end
$scope module PC_block $end
$var wire 1 i clk $end
$var wire 32 J" nextPC [31:0] $end
$var wire 1 D StallF $end
$var reg 32 K" currPC [31:0] $end
$upscope $end
$scope module PCadd4 $end
$var wire 32 L" currPC [31:0] $end
$var wire 32 M" PCplus4 [31:0] $end
$upscope $end
$scope module aluMux $end
$var wire 32 N" mux_in_1 [31:0] $end
$var wire 1 O" select $end
$var wire 32 P" mux_in_0 [31:0] $end
$var reg 32 Q" mux_out [31:0] $end
$upscope $end
$scope module aluSrcAMux $end
$var wire 32 R" mux_in_0 [31:0] $end
$var wire 32 S" mux_in_2 [31:0] $end
$var wire 2 T" select [1:0] $end
$var wire 32 U" mux_in_1 [31:0] $end
$var reg 32 V" mux_out [31:0] $end
$upscope $end
$scope module aluSrcBMux $end
$var wire 32 W" mux_in_0 [31:0] $end
$var wire 32 X" mux_in_2 [31:0] $end
$var wire 2 Y" select [1:0] $end
$var wire 32 Z" mux_in_1 [31:0] $end
$var reg 32 [" mux_out [31:0] $end
$upscope $end
$scope module branchAdder $end
$var wire 32 \" PC_Plus4 [31:0] $end
$var wire 32 ]" signExtendedImmediate [31:0] $end
$var reg 32 ^" out [31:0] $end
$upscope $end
$scope module branchAnd $end
$var wire 1 _ zero $end
$var wire 1 c branch $end
$var reg 1 _" and_out $end
$upscope $end
$scope module branchControl $end
$var wire 32 `" input1 [31:0] $end
$var wire 32 a" input2 [31:0] $end
$var wire 3 b" BranchOp [2:0] $end
$var reg 1 _ equalD $end
$upscope $end
$scope module branchMux $end
$var wire 32 c" mux_in_0 [31:0] $end
$var wire 32 d" mux_in_1 [31:0] $end
$var wire 1 ! select $end
$var reg 32 e" mux_out [31:0] $end
$upscope $end
$scope module control_block $end
$var wire 32 f" instr [31:0] $end
$var reg 5 g" ALUop [4:0] $end
$var reg 1 h" ALUsrc $end
$var reg 1 c Branch $end
$var reg 3 i" BranchOp [2:0] $end
$var reg 7 j" EX_D [6:0] $end
$var reg 1 6 Jump $end
$var reg 2 k" MEM_D [1:0] $end
$var reg 1 l" MemRead $end
$var reg 1 m" MemToReg $end
$var reg 1 n" MemWrite $end
$var reg 1 o" RegDst $end
$var reg 1 p" RegWrite $end
$var reg 2 q" WB_D [1:0] $end
$var reg 1 9 jal_control $end
$var reg 1 7 jr_control $end
$var reg 1 ) syscall_control $end
$upscope $end
$scope module dataMem $end
$var wire 32 r" address [31:0] $end
$var wire 1 i clk $end
$var wire 1 s" memRead $end
$var wire 1 t" memWrite $end
$var wire 32 u" writeData [31:0] $end
$var reg 32 v" readData [31:0] $end
$upscope $end
$scope module hazard $end
$var wire 1 w" MemReadE $end
$var wire 1 x" MemReadM $end
$var wire 1 y" MemtoRegE $end
$var wire 1 z" MemtoRegM $end
$var wire 1 ! PCSrc_D $end
$var wire 1 {" RegWriteE $end
$var wire 1 |" RegWriteM $end
$var wire 1 }" RegWriteW $end
$var wire 5 ~" RsD [4:0] $end
$var wire 5 !# RsE [4:0] $end
$var wire 5 "# RtD [4:0] $end
$var wire 5 ## RtE [4:0] $end
$var wire 5 $# WriteRegM [4:0] $end
$var wire 5 %# WriteRegW [4:0] $end
$var wire 1 &# jump $end
$var wire 1 ) sycall_control $end
$var wire 5 '# WriteRegE [4:0] $end
$var reg 1 ^ FlushE $end
$var reg 1 ] ForwardAD $end
$var reg 2 (# ForwardAE [1:0] $end
$var reg 1 [ ForwardBD $end
$var reg 2 )# ForwardBE [1:0] $end
$var reg 1 E StallD $end
$var reg 1 D StallF $end
$var reg 1 *# branchstall $end
$var reg 1 +# lwstall $end
$var reg 1 ( sysstall $end
$upscope $end
$scope module instructionMemory $end
$var wire 32 ,# currPC [31:0] $end
$var wire 32 -# str [31:0] $end
$var wire 32 .# strAddr [31:0] $end
$var reg 32 /# instr [31:0] $end
$var reg 32 0# number_instructions [31:0] $end
$upscope $end
$scope module jrMux $end
$var wire 32 1# mux_in_0 [31:0] $end
$var wire 1 7 select $end
$var wire 32 2# mux_in_1 [31:0] $end
$var reg 32 3# mux_out [31:0] $end
$upscope $end
$scope module jumpMux $end
$var wire 32 4# mux_in_0 [31:0] $end
$var wire 32 5# mux_in_1 [31:0] $end
$var wire 1 6 select $end
$var reg 32 6# mux_out [31:0] $end
$upscope $end
$scope module memToRegMux $end
$var wire 32 7# mux_in_0 [31:0] $end
$var wire 32 8# mux_in_1 [31:0] $end
$var wire 1 9# select $end
$var reg 32 :# mux_out [31:0] $end
$upscope $end
$scope module printer $end
$var wire 32 ;# str [31:0] $end
$var wire 1 3 print $end
$var wire 32 <# a0 [31:0] $end
$var reg 1 =# isPrinting $end
$var reg 32 ># strAddr [31:0] $end
$var reg 8 ?# thisLetter [7:0] $end
$var integer 32 @# i [31:0] $end
$upscope $end
$scope module reg_block $end
$var wire 1 A# RegWrite_D $end
$var wire 1 B# RegWrite_W $end
$var wire 32 C# a0 [31:0] $end
$var wire 1 i clk $end
$var wire 32 D# fp [31:0] $end
$var wire 32 E# jal_address [31:0] $end
$var wire 1 9 jal_control $end
$var wire 32 F# ra [31:0] $end
$var wire 5 G# readReg1 [4:0] $end
$var wire 5 H# readReg2 [4:0] $end
$var wire 32 I# sp [31:0] $end
$var wire 32 J# v0 [31:0] $end
$var wire 32 K# v1 [31:0] $end
$var wire 32 L# writeData [31:0] $end
$var wire 5 M# writeReg [4:0] $end
$var reg 32 N# readData1 [31:0] $end
$var reg 32 O# readData2 [31:0] $end
$var integer 32 P# i [31:0] $end
$upscope $end
$scope module registerMux $end
$var wire 5 Q# mux_in_0 [4:0] $end
$var wire 5 R# mux_in_1 [4:0] $end
$var wire 1 S# select $end
$var reg 5 T# mux_out [4:0] $end
$upscope $end
$scope module runStats $end
$var wire 1 i clk $end
$var wire 32 U# number_instructions [31:0] $end
$var wire 1 , stat_control $end
$var reg 32 V# number_cycles [31:0] $end
$upscope $end
$scope module signExtend_block $end
$var wire 32 W# instr [31:0] $end
$var reg 32 X# out_value [31:0] $end
$upscope $end
$scope module testSyscall $end
$var wire 32 Y# a0 [31:0] $end
$var wire 1 ) syscall_control $end
$var wire 1 ( sysstall $end
$var wire 32 Z# v0 [31:0] $end
$var reg 1 3 print $end
$var reg 1 , stat_control $end
$upscope $end
$upscope $end
$enddefinitions $end
#0
$dumpvars
b0 Z#
b0 Y#
b111111111111111 X#
b111100000111010111111111111111 W#
b1 V#
b1 U#
bx T#
0S#
bx R#
bx Q#
b100000 P#
bx O#
bx N#
bx M#
bx L#
b0 K#
b0 J#
b0 I#
b11101 H#
b0 G#
b0 F#
b10000000000000000111000 E#
b0 D#
b0 C#
xB#
1A#
bx @#
bx ?#
bx >#
0=#
b0 <#
bx ;#
bx :#
x9#
bx 8#
bx 7#
b10000000000000000110100 6#
b11101011111111111111100 5#
b10000000000000000110100 4#
b11101011111111111111100 3#
b0 2#
b11101011111111111111100 1#
b1 0#
b111100000111010111111111111111 /#
bx .#
bx -#
b10000000000000000110000 ,#
0+#
0*#
b0 )#
b0 (#
bx '#
z&#
bx %#
bx $#
bx ##
b11101 "#
bx !#
b0 ~"
x}"
x|"
0{"
xz"
0y"
xx"
0w"
bx v"
bx u"
xt"
xs"
bx r"
b10 q"
1p"
0o"
0n"
0m"
0l"
b0 k"
b100011 j"
b0 i"
1h"
b11 g"
b111100000111010111111111111111 f"
b10000000000000000110100 e"
b10000100000000000110000 d"
b10000000000000000110100 c"
b0 b"
bx a"
bx `"
0_"
b10000100000000000110000 ^"
b111111111111111 ]"
b10000000000000000110100 \"
bx ["
bx Z"
b0 Y"
bx X"
bx W"
bx V"
bx U"
b0 T"
bx S"
bx R"
bx Q"
bx P"
0O"
bx N"
b10000000000000000110100 M"
b10000000000000000110000 L"
b10000000000000000110000 K"
b10000000000000000110100 J"
bx I"
bx H"
bx G"
bx F"
bx E"
bx D"
bx C"
bx B"
bx A"
bx @"
bx ?"
bx >"
bx ="
bx <"
b11101011111111111111100 ;"
b111100000111010111111111111111 :"
b10000000000000000110100 9"
b10000000000000000110100 8"
b10000000000000000110000 7"
b111100000111010111111111111111 6"
b111100000111010111111111111111 5"
b10000000000000000110000 4"
b10000000000000000110100 3"
b0 2"
bx 1"
bx 0"
bx /"
bx ."
bx -"
bx ,"
bx +"
b0 *"
b0 )"
b100011 ("
b0 '"
bx &"
bx %"
b111111111111111 $"
b10 #"
b11111 ""
b11101 !"
b0 ~
b1111 }
bx |
bx {
bx z
bx y
bx x
b0 w
b0 v
bx u
bx t
zs
bx r
b0 q
b0 p
bx o
bx n
bx m
bx l
bx k
b0 j
1i
bx h
bx g
bx f
bx e
bx d
0c
b0 b
b100011 a
b0 `
0_
0^
0]
b0 \
x[
b0 Z
b0 Y
b0 X
bx W
b10000000000000000110100 V
b10000100000000000110000 U
b10000000000000000110100 T
b10000000000000000110100 S
b10000000000000000110000 R
b10000000000000000110000 Q
bx P
bx O
bx N
bx M
bx L
bx K
bx J
bx I
bx H
bx G
bx F
0E
0D
b10 C
b0 B
bx A
bx @
bx ?
b0 >
b10000000000000000110100 =
b0 <
b111100000111010111111111111111 ;
b111100000111010111111111111111 :
09
b11101011111111111111100 8
07
06
b11101011111111111111100 5
b1 4
03
b0 2
bx 1
bx 0
b111111111111111 /
bx .
b0 -
0,
bx +
bx *
0)
0(
b0 '
b0 &
bx %
bx $
bx #
bx "
0!
$end
#10
b0 e
b0 F"
b0 `"
b0 N
b0 %"
b0 H"
b0 O#
b0 P
b0 &"
b0 E"
b0 N#
0i
#20
b0 d
b0 I"
b0 a"
0[
b10000000000000000111000 V
b10000000000000000111000 J"
b10000000000000000111000 6#
0|"
0z"
0s"
0t"
0x"
b1111111111111110000000000000000 h
b1111111111111110000000000000000 n
b1111111111111110000000000000000 r
b111111111111111 F
b111111111111111 l
b111111111111111 Q"
b0 ?
b0 u
b0 P"
b0 ["
b0 G
b0 m
b0 V"
b11101 $
b11101 t
b11101 '#
b11101 T#
1{"
b11 j
1O"
b10000000000000000111000 =
b10000000000000000111000 e"
b10000000000000000111000 4#
b10 4
b10 0#
b10 U#
b1100000100000000000000111101 :
b1100000100000000000000111101 5"
b1100000100000000000000111101 /#
b0 A
b0 z
b0 ="
b0 W
b0 y
b11111 H
b11111 k
b11111 0"
b111111111111111 .
b111111111111111 1"
b111111111111111 N"
b0 M
b0 ,"
b0 W"
b0 O
b0 +"
b0 R"
b1111 L
b1111 -"
b1111 R#
b11101 I
b11101 /"
b11101 ##
b11101 Q#
b0 J
b0 ."
b0 !#
b10 B
b10 v
b10 2"
b100011 `
b100011 )"
b10000000000000000111000 S
b10000000000000000111000 3"
b10000000000000000111000 M"
b10000000000000000111000 c"
b10000000000000000110100 Q
b10000000000000000110100 4"
b10000000000000000110100 K"
b10000000000000000110100 L"
b10000000000000000110100 ,#
b10 V#
1i
#30
0i
#40
b10000000000000011110100 8
b10000000000000011110100 3#
b10000000000000011110100 5#
b10000000000000011110100 5
b10000000000000011110100 ;"
b10000000000000011110100 1#
b10000000000000011110100 V
b10000000000000011110100 J"
b10000000000000011110100 6#
b1111111111111110000000000000000 ?
b1111111111111110000000000000000 u
b1111111111111110000000000000000 P"
b1111111111111110000000000000000 ["
b0 d
b0 I"
b0 a"
b10000000000000000111100 =
b10000000000000000111100 e"
b10000000000000000111100 4#
b11 4
b11 0#
b11 U#
b110111101111011111111111111100 :
b110111101111011111111111111100 5"
b110111101111011111111111111100 /#
b10000000000000100101100 U
b10000000000000100101100 ^"
b10000000000000100101100 d"
b0 a
b0 ("
b0 j"
19
16
0h"
1p"
b0 g"
b111101 /
b111101 $"
b111101 ]"
b111101 X#
b0 ""
b0 }
b10000 !"
b10000 H#
b10000 "#
b10 Z
b10 Y"
b10 )#
0[
1|"
09#
0B#
0}"
b10000000000000000111100 S
b10000000000000000111100 3"
b10000000000000000111100 M"
b10000000000000000111100 c"
b10000000000000000111000 Q
b10000000000000000111000 4"
b10000000000000000111000 K"
b10000000000000000111000 L"
b10000000000000000111000 ,#
b10000000000000000111000 T
b10000000000000000111000 8"
b10000000000000000111000 9"
b10000000000000000111000 \"
b1100000100000000000000111101 ;
b1100000100000000000000111101 6"
b1100000100000000000000111101 :"
b1100000100000000000000111101 f"
b1100000100000000000000111101 W#
b10000000000000000111100 E#
b10000000000000000110100 R
b10000000000000000110100 7"
b11101 #
b11101 |
b11101 >"
b11101 $#
b0 %
b0 {
b0 u"
b1111111111111110000000000000000 g
b1111111111111110000000000000000 x
b1111111111111110000000000000000 <"
b1111111111111110000000000000000 D"
b1111111111111110000000000000000 G"
b1111111111111110000000000000000 S"
b1111111111111110000000000000000 X"
b1111111111111110000000000000000 r"
b10 A
b10 z
b10 ="
b0 @
b0 B"
b11 V#
1i
#41
b10000000000000000111100 2
b10000000000000000111100 2#
b10000000000000000111100 F#
#50
0i
#60
b10111101111111111111110000 8
b10111101111111111111110000 3#
b10111101111111111111110000 5#
b0 ?
b0 u
b0 P"
b0 ["
b1111111111111110000000000000000 d
b1111111111111110000000000000000 I"
b1111111111111110000000000000000 a"
b1111111111111110000000000000000 e
b1111111111111110000000000000000 F"
b1111111111111110000000000000000 `"
b10111101111111111111110000 5
b10111101111111111111110000 ;"
b10111101111111111111110000 1#
b10000000000000011111000 V
b10000000000000011111000 J"
b10000000000000011111000 6#
b1111111111111110000000000000000 K
b1111111111111110000000000000000 U"
b1111111111111110000000000000000 Z"
b1111111111111110000000000000000 :#
b1111111111111110000000000000000 L#
1B#
1}"
b0 h
b0 n
b0 r
b0 F
b0 l
b0 Q"
b0 Z
b0 Y"
b0 )#
1[
1]
b0 $
b0 t
b0 '#
b0 T#
0{"
b0 j
0O"
b10001000000000000101100 U
b10001000000000000101100 ^"
b10001000000000000101100 d"
b1111111111111100 /
b1111111111111100 $"
b1111111111111100 ]"
b1111111111111100 X#
b100001 a
b100001 ("
b100001 j"
1h"
b1 g"
09
1p"
06
b11111 ""
b11111 }
b11101 !"
b11101 ~
b11101 H#
b11101 G#
b11101 "#
b11101 ~"
b10000000000000011111000 =
b10000000000000011111000 e"
b10000000000000011111000 4#
b100 4
b100 0#
b100 U#
b100111101111011111111101100000 :
b100111101111011111111101100000 5"
b100111101111011111111101100000 /#
b11101 "
b11101 C"
b11101 %#
b11101 M#
b1111111111111110000000000000000 f
b1111111111111110000000000000000 @"
b1111111111111110000000000000000 7#
b10 @
b10 B"
b1111111111111110000000000000000 %
b1111111111111110000000000000000 {
b1111111111111110000000000000000 u"
b0 H
b0 k
b0 0"
b0 .
b0 1"
b0 N"
b0 L
b0 -"
b0 R#
b0 I
b0 /"
b0 ##
b0 Q#
b0 B
b0 v
b0 2"
b0 `
b0 )"
b10000000000000000111100 T
b10000000000000000111100 8"
b10000000000000000111100 9"
b10000000000000000111100 \"
b110111101111011111111111111100 ;
b110111101111011111111111111100 6"
b110111101111011111111111111100 :"
b110111101111011111111111111100 f"
b110111101111011111111111111100 W#
b10000000000000001000000 E#
b10000000000000000111000 R
b10000000000000000111000 7"
b10000000000000011111000 S
b10000000000000011111000 3"
b10000000000000011111000 M"
b10000000000000011111000 c"
b10000000000000011110100 Q
b10000000000000011110100 4"
b10000000000000011110100 K"
b10000000000000011110100 L"
b10000000000000011110100 ,#
b100 V#
1i
#61
b1111111111111110000000000000000 -
b1111111111111110000000000000000 I#
#70
b1111111111111110000000000000000 N
b1111111111111110000000000000000 %"
b1111111111111110000000000000000 H"
b1111111111111110000000000000000 O#
b1111111111111110000000000000000 P
b1111111111111110000000000000000 &"
b1111111111111110000000000000000 E"
b1111111111111110000000000000000 N#
0i
#80
b10111101111111110110000000 8
b10111101111111110110000000 3#
b10111101111111110110000000 5#
b10000000000000011111100 V
b10000000000000011111100 J"
b10000000000000011111100 6#
b10111101111111110110000000 5
b10111101111111110110000000 ;"
b10111101111111110110000000 1#
b10000000000000011111100 =
b10000000000000011111100 e"
b10000000000000011111100 4#
b101 4
b101 0#
b101 U#
b10101111101111110000000010011100 :
b10101111101111110000000010011100 5"
b10101111101111110000000010011100 /#
b1111111111111001111000 U
b1111111111111001111000 ^"
b1111111111111001111000 d"
b100010 a
b100010 ("
b100010 j"
1h"
1p"
b10 g"
b11111111111111111111111101100000 /
b11111111111111111111111101100000 $"
b11111111111111111111111101100000 ]"
b11111111111111111111111101100000 X#
b11101 ""
b1111111111111111111111111111100 h
b1111111111111111111111111111100 n
b1111111111111111111111111111100 r
b1111111111111100 F
b1111111111111100 l
b1111111111111100 Q"
b11101 $
b11101 t
b11101 '#
b11101 T#
1{"
b1 j
1O"
b1 Z
b1 Y"
b1 )#
b1 \
b1 T"
b1 (#
0[
0]
b1111111111111110000000000000000 e
b1111111111111110000000000000000 F"
b1111111111111110000000000000000 `"
b1111111111111110000000000000000 d
b1111111111111110000000000000000 I"
b1111111111111110000000000000000 a"
b1111111111111110000000000000000 G
b1111111111111110000000000000000 m
b1111111111111110000000000000000 V"
b1111111111111110000000000000000 ?
b1111111111111110000000000000000 u
b1111111111111110000000000000000 P"
b1111111111111110000000000000000 ["
0|"
b10000000000000011111100 S
b10000000000000011111100 3"
b10000000000000011111100 M"
b10000000000000011111100 c"
b10000000000000011111000 Q
b10000000000000011111000 4"
b10000000000000011111000 K"
b10000000000000011111000 L"
b10000000000000011111000 ,#
b10000000000000011111000 T
b10000000000000011111000 8"
b10000000000000011111000 9"
b10000000000000011111000 \"
b100111101111011111111101100000 ;
b100111101111011111111101100000 6"
b100111101111011111111101100000 :"
b100111101111011111111101100000 f"
b100111101111011111111101100000 W#
b10000000000000011111100 E#
b10000000000000011110100 R
b10000000000000011110100 7"
b11111 H
b11111 k
b11111 0"
b1111111111111100 .
b1111111111111100 1"
b1111111111111100 N"
b1111111111111110000000000000000 M
b1111111111111110000000000000000 ,"
b1111111111111110000000000000000 W"
b1111111111111110000000000000000 O
b1111111111111110000000000000000 +"
b1111111111111110000000000000000 R"
b11111 L
b11111 -"
b11111 R#
b11101 I
b11101 /"
b11101 ##
b11101 Q#
b11101 J
b11101 ."
b11101 !#
b10 B
b10 v
b10 2"
b100001 `
b100001 )"
b0 #
b0 |
b0 >"
b0 $#
b0 %
b0 {
b0 u"
b0 g
b0 x
b0 <"
b0 D"
b0 G"
b0 S"
b0 X"
b0 r"
b0 A
b0 z
b0 ="
b101 V#
1i
#90
0i
#100
b10111111000000001001110000 8
b10111111000000001001110000 3#
b10111111000000001001110000 5#
b1111111111111111111111111111100 ?
b1111111111111111111111111111100 u
b1111111111111111111111111111100 P"
b1111111111111111111111111111100 ["
b1111111111111111111111111111100 G
b1111111111111111111111111111100 m
b1111111111111111111111111111100 V"
b1111111111111111111111111111100 e
b1111111111111111111111111111100 F"
b1111111111111111111111111111100 `"
b10111111000000001001110000 5
b10111111000000001001110000 ;"
b10111111000000001001110000 1#
0A#
b10000000000000100000000 V
b10000000000000100000000 J"
b10000000000000100000000 6#
b0 K
b0 U"
b0 Z"
b0 :#
b0 L#
0B#
0}"
b10 Z
b10 Y"
b10 )#
b10 \
b10 T"
b10 (#
1]
1|"
b1111111111111111111111101011100 h
b1111111111111111111111101011100 n
b1111111111111111111111101011100 r
b11111111111111111111111101100000 F
b11111111111111111111111101100000 l
b11111111111111111111111101100000 Q"
b10 j
b10000000000001101101100 U
b10000000000001101101100 ^"
b10000000000001101101100 d"
b10011100 /
b10011100 $"
b10011100 ]"
b10011100 X#
b0 C
b0 #"
b0 q"
b10 Y
b10 '"
b10 k"
1n"
1h"
0p"
b10 g"
b10 ""
b0 }
b11111 !"
b11111 H#
b11111 "#
b10000000000000100000000 =
b10000000000000100000000 e"
b10000000000000100000000 4#
b110 4
b110 0#
b110 U#
b10101111101111100000000010011000 :
b10101111101111100000000010011000 5"
b10101111101111100000000010011000 /#
b0 "
b0 C"
b0 %#
b0 M#
b0 f
b0 @"
b0 7#
b0 @
b0 B"
b11101 #
b11101 |
b11101 >"
b11101 $#
b1111111111111110000000000000000 %
b1111111111111110000000000000000 {
b1111111111111110000000000000000 u"
b1111111111111111111111111111100 g
b1111111111111111111111111111100 x
b1111111111111111111111111111100 <"
b1111111111111111111111111111100 D"
b1111111111111111111111111111100 G"
b1111111111111111111111111111100 S"
b1111111111111111111111111111100 X"
b1111111111111111111111111111100 r"
b10 A
b10 z
b10 ="
b11101 H
b11101 k
b11101 0"
b11111111111111111111111101100000 .
b11111111111111111111111101100000 1"
b11111111111111111111111101100000 N"
b100010 `
b100010 )"
b10000000000000011111100 T
b10000000000000011111100 8"
b10000000000000011111100 9"
b10000000000000011111100 \"
b10101111101111110000000010011100 ;
b10101111101111110000000010011100 6"
b10101111101111110000000010011100 :"
b10101111101111110000000010011100 f"
b10101111101111110000000010011100 W#
b10000000000000100000000 E#
b10000000000000011111000 R
b10000000000000011111000 7"
b10000000000000100000000 S
b10000000000000100000000 3"
b10000000000000100000000 M"
b10000000000000100000000 c"
b10000000000000011111100 Q
b10000000000000011111100 4"
b10000000000000011111100 K"
b10000000000000011111100 L"
b10000000000000011111100 ,#
b110 V#
1i
#110
b10000000000000000111100 d
b10000000000000000111100 I"
b10000000000000000111100 a"
b10000000000000000111100 N
b10000000000000000111100 %"
b10000000000000000111100 H"
b10000000000000000111100 O#
0i
